%YAML 1.1
%TAG !u! tag:unity3d.com,2011:
--- !u!1001 &204149178179001517
PrefabInstance:
  m_ObjectHideFlags: 0
  serializedVersion: 2
  m_Modification:
    m_TransformParent: {fileID: 7536032111479879949}
    m_Modifications:
    - target: {fileID: 4703040221364307242, guid: 30cd4b8a989daaa4fbb273ee70bf99f6, type: 3}
      propertyPath: m_Name
      value: Plant 2
      objectReference: {fileID: 0}
    - target: {fileID: 8233102405603228788, guid: 30cd4b8a989daaa4fbb273ee70bf99f6, type: 3}
      propertyPath: m_RootOrder
      value: 32
      objectReference: {fileID: 0}
    - target: {fileID: 8233102405603228788, guid: 30cd4b8a989daaa4fbb273ee70bf99f6, type: 3}
      propertyPath: m_LocalPosition.x
      value: -13.296198
      objectReference: {fileID: 0}
    - target: {fileID: 8233102405603228788, guid: 30cd4b8a989daaa4fbb273ee70bf99f6, type: 3}
      propertyPath: m_LocalPosition.y
      value: 0.33652171
      objectReference: {fileID: 0}
    - target: {fileID: 8233102405603228788, guid: 30cd4b8a989daaa4fbb273ee70bf99f6, type: 3}
      propertyPath: m_LocalPosition.z
      value: -3.6065755
      objectReference: {fileID: 0}
    - target: {fileID: 8233102405603228788, guid: 30cd4b8a989daaa4fbb273ee70bf99f6, type: 3}
      propertyPath: m_LocalRotation.w
      value: 1
      objectReference: {fileID: 0}
    - target: {fileID: 8233102405603228788, guid: 30cd4b8a989daaa4fbb273ee70bf99f6, type: 3}
      propertyPath: m_LocalRotation.x
      value: -0
      objectReference: {fileID: 0}
    - target: {fileID: 8233102405603228788, guid: 30cd4b8a989daaa4fbb273ee70bf99f6, type: 3}
      propertyPath: m_LocalRotation.y
      value: -0
      objectReference: {fileID: 0}
    - target: {fileID: 8233102405603228788, guid: 30cd4b8a989daaa4fbb273ee70bf99f6, type: 3}
      propertyPath: m_LocalRotation.z
      value: -0
      objectReference: {fileID: 0}
    - target: {fileID: 8233102405603228788, guid: 30cd4b8a989daaa4fbb273ee70bf99f6, type: 3}
      propertyPath: m_LocalEulerAnglesHint.x
      value: 0
      objectReference: {fileID: 0}
    - target: {fileID: 8233102405603228788, guid: 30cd4b8a989daaa4fbb273ee70bf99f6, type: 3}
      propertyPath: m_LocalEulerAnglesHint.y
      value: 0
      objectReference: {fileID: 0}
    - target: {fileID: 8233102405603228788, guid: 30cd4b8a989daaa4fbb273ee70bf99f6, type: 3}
      propertyPath: m_LocalEulerAnglesHint.z
      value: 0
      objectReference: {fileID: 0}
    m_RemovedComponents: []
  m_SourcePrefab: {fileID: 100100000, guid: 30cd4b8a989daaa4fbb273ee70bf99f6, type: 3}
--- !u!1001 &4710482560939635542
PrefabInstance:
  m_ObjectHideFlags: 0
  serializedVersion: 2
  m_Modification:
    m_TransformParent: {fileID: 0}
    m_Modifications:
    - target: {fileID: 3011680724816883900, guid: 191c38e54f829034eb630d581a4ffd19, type: 3}
      propertyPath: m_RootOrder
      value: 0
      objectReference: {fileID: 0}
    - target: {fileID: 3011680724816883900, guid: 191c38e54f829034eb630d581a4ffd19, type: 3}
      propertyPath: m_LocalPosition.x
      value: 0
      objectReference: {fileID: 0}
    - target: {fileID: 3011680724816883900, guid: 191c38e54f829034eb630d581a4ffd19, type: 3}
      propertyPath: m_LocalPosition.y
      value: 0
      objectReference: {fileID: 0}
    - target: {fileID: 3011680724816883900, guid: 191c38e54f829034eb630d581a4ffd19, type: 3}
      propertyPath: m_LocalPosition.z
      value: 0
      objectReference: {fileID: 0}
    - target: {fileID: 3011680724816883900, guid: 191c38e54f829034eb630d581a4ffd19, type: 3}
      propertyPath: m_LocalRotation.w
      value: 1
      objectReference: {fileID: 0}
    - target: {fileID: 3011680724816883900, guid: 191c38e54f829034eb630d581a4ffd19, type: 3}
      propertyPath: m_LocalRotation.x
      value: 0
      objectReference: {fileID: 0}
    - target: {fileID: 3011680724816883900, guid: 191c38e54f829034eb630d581a4ffd19, type: 3}
      propertyPath: m_LocalRotation.y
      value: 0
      objectReference: {fileID: 0}
    - target: {fileID: 3011680724816883900, guid: 191c38e54f829034eb630d581a4ffd19, type: 3}
      propertyPath: m_LocalRotation.z
      value: 0
      objectReference: {fileID: 0}
    - target: {fileID: 3011680724816883900, guid: 191c38e54f829034eb630d581a4ffd19, type: 3}
      propertyPath: m_LocalEulerAnglesHint.x
      value: 0
      objectReference: {fileID: 0}
    - target: {fileID: 3011680724816883900, guid: 191c38e54f829034eb630d581a4ffd19, type: 3}
      propertyPath: m_LocalEulerAnglesHint.y
      value: 0
      objectReference: {fileID: 0}
    - target: {fileID: 3011680724816883900, guid: 191c38e54f829034eb630d581a4ffd19, type: 3}
      propertyPath: m_LocalEulerAnglesHint.z
      value: 0
      objectReference: {fileID: 0}
    - target: {fileID: 3011680724816883901, guid: 191c38e54f829034eb630d581a4ffd19, type: 3}
      propertyPath: m_Name
      value: Environment
      objectReference: {fileID: 0}
    m_RemovedComponents: []
  m_SourcePrefab: {fileID: 100100000, guid: 191c38e54f829034eb630d581a4ffd19, type: 3}
--- !u!4 &7536032111479879949 stripped
Transform:
  m_CorrespondingSourceObject: {fileID: 3011680724383910491, guid: 191c38e54f829034eb630d581a4ffd19, type: 3}
  m_PrefabInstance: {fileID: 4710482560939635542}
  m_PrefabAsset: {fileID: 0}
--- !u!1001 &8736441841010412401
PrefabInstance:
  m_ObjectHideFlags: 0
  serializedVersion: 2
  m_Modification:
    m_TransformParent: {fileID: 7536032111479879949}
    m_Modifications:
    - target: {fileID: 1799145172504711529, guid: 18af26af61ee8234caa44dc89f89d5cf, type: 3}
      propertyPath: m_Name
      value: Mushroom 2
      objectReference: {fileID: 0}
    - target: {fileID: 4262527595393066397, guid: 18af26af61ee8234caa44dc89f89d5cf, type: 3}
      propertyPath: m_RootOrder
      value: 31
      objectReference: {fileID: 0}
    - target: {fileID: 4262527595393066397, guid: 18af26af61ee8234caa44dc89f89d5cf, type: 3}
      propertyPath: m_LocalPosition.x
      value: -11.679437
      objectReference: {fileID: 0}
    - target: {fileID: 4262527595393066397, guid: 18af26af61ee8234caa44dc89f89d5cf, type: 3}
      propertyPath: m_LocalPosition.y
      value: 0.32537904
      objectReference: {fileID: 0}
    - target: {fileID: 4262527595393066397, guid: 18af26af61ee8234caa44dc89f89d5cf, type: 3}
      propertyPath: m_LocalPosition.z
      value: 12.936599
      objectReference: {fileID: 0}
    - target: {fileID: 4262527595393066397, guid: 18af26af61ee8234caa44dc89f89d5cf, type: 3}
      propertyPath: m_LocalRotation.w
      value: 1
      objectReference: {fileID: 0}
    - target: {fileID: 4262527595393066397, guid: 18af26af61ee8234caa44dc89f89d5cf, type: 3}
      propertyPath: m_LocalRotation.x
      value: -0
      objectReference: {fileID: 0}
    - target: {fileID: 4262527595393066397, guid: 18af26af61ee8234caa44dc89f89d5cf, type: 3}
      propertyPath: m_LocalRotation.y
      value: -0
      objectReference: {fileID: 0}
    - target: {fileID: 4262527595393066397, guid: 18af26af61ee8234caa44dc89f89d5cf, type: 3}
      propertyPath: m_LocalRotation.z
      value: -0
      objectReference: {fileID: 0}
    - target: {fileID: 4262527595393066397, guid: 18af26af61ee8234caa44dc89f89d5cf, type: 3}
      propertyPath: m_LocalEulerAnglesHint.x
      value: 0
      objectReference: {fileID: 0}
    - target: {fileID: 4262527595393066397, guid: 18af26af61ee8234caa44dc89f89d5cf, type: 3}
      propertyPath: m_LocalEulerAnglesHint.y
      value: 0
      objectReference: {fileID: 0}
    - target: {fileID: 4262527595393066397, guid: 18af26af61ee8234caa44dc89f89d5cf, type: 3}
      propertyPath: m_LocalEulerAnglesHint.z
      value: 0
      objectReference: {fileID: 0}
    m_RemovedComponents: []
  m_SourcePrefab: {fileID: 100100000, guid: 18af26af61ee8234caa44dc89f89d5cf, type: 3}
