%YAML 1.1
%TAG !u! tag:unity3d.com,2011:
--- !u!29 &1
OcclusionCullingSettings:
  m_ObjectHideFlags: 0
  serializedVersion: 2
  m_OcclusionBakeSettings:
    smallestOccluder: 5
    smallestHole: 0.25
    backfaceThreshold: 100
  m_SceneGUID: 00000000000000000000000000000000
  m_OcclusionCullingData: {fileID: 0}
--- !u!104 &2
RenderSettings:
  m_ObjectHideFlags: 0
  serializedVersion: 9
  m_Fog: 0
  m_FogColor: {r: 0.5, g: 0.5, b: 0.5, a: 1}
  m_FogMode: 3
  m_FogDensity: 0.01
  m_LinearFogStart: 0
  m_LinearFogEnd: 300
  m_AmbientSkyColor: {r: 0.212, g: 0.227, b: 0.259, a: 1}
  m_AmbientEquatorColor: {r: 0.114, g: 0.125, b: 0.133, a: 1}
  m_AmbientGroundColor: {r: 0.047, g: 0.043, b: 0.035, a: 1}
  m_AmbientIntensity: 1
  m_AmbientMode: 3
  m_SubtractiveShadowColor: {r: 0.42, g: 0.478, b: 0.627, a: 1}
  m_SkyboxMaterial: {fileID: 0}
  m_HaloStrength: 0.5
  m_FlareStrength: 1
  m_FlareFadeSpeed: 3
  m_HaloTexture: {fileID: 0}
  m_SpotCookie: {fileID: 10001, guid: 0000000000000000e000000000000000, type: 0}
  m_DefaultReflectionMode: 0
  m_DefaultReflectionResolution: 128
  m_ReflectionBounces: 1
  m_ReflectionIntensity: 1
  m_CustomReflection: {fileID: 0}
  m_Sun: {fileID: 0}
  m_IndirectSpecularColor: {r: 0, g: 0, b: 0, a: 1}
  m_UseRadianceAmbientProbe: 0
--- !u!157 &3
LightmapSettings:
  m_ObjectHideFlags: 0
  serializedVersion: 12
  m_GIWorkflowMode: 1
  m_GISettings:
    serializedVersion: 2
    m_BounceScale: 1
    m_IndirectOutputScale: 1
    m_AlbedoBoost: 1
    m_EnvironmentLightingMode: 0
    m_EnableBakedLightmaps: 0
    m_EnableRealtimeLightmaps: 0
  m_LightmapEditorSettings:
    serializedVersion: 12
    m_Resolution: 2
    m_BakeResolution: 40
    m_AtlasSize: 1024
    m_AO: 0
    m_AOMaxDistance: 1
    m_CompAOExponent: 1
    m_CompAOExponentDirect: 0
    m_ExtractAmbientOcclusion: 0
    m_Padding: 2
    m_LightmapParameters: {fileID: 0}
    m_LightmapsBakeMode: 1
    m_TextureCompression: 1
    m_FinalGather: 0
    m_FinalGatherFiltering: 1
    m_FinalGatherRayCount: 256
    m_ReflectionCompression: 2
    m_MixedBakeMode: 2
    m_BakeBackend: 0
    m_PVRSampling: 1
    m_PVRDirectSampleCount: 32
    m_PVRSampleCount: 500
    m_PVRBounces: 2
    m_PVREnvironmentSampleCount: 500
    m_PVREnvironmentReferencePointCount: 2048
    m_PVRFilteringMode: 2
    m_PVRDenoiserTypeDirect: 0
    m_PVRDenoiserTypeIndirect: 0
    m_PVRDenoiserTypeAO: 0
    m_PVRFilterTypeDirect: 0
    m_PVRFilterTypeIndirect: 0
    m_PVRFilterTypeAO: 0
    m_PVREnvironmentMIS: 0
    m_PVRCulling: 1
    m_PVRFilteringGaussRadiusDirect: 1
    m_PVRFilteringGaussRadiusIndirect: 5
    m_PVRFilteringGaussRadiusAO: 2
    m_PVRFilteringAtrousPositionSigmaDirect: 0.5
    m_PVRFilteringAtrousPositionSigmaIndirect: 2
    m_PVRFilteringAtrousPositionSigmaAO: 1
    m_ExportTrainingData: 0
    m_TrainingDataDestination: TrainingData
    m_LightProbeSampleCountMultiplier: 4
  m_LightingDataAsset: {fileID: 0}
  m_LightingSettings: {fileID: 0}
--- !u!196 &4
NavMeshSettings:
  serializedVersion: 2
  m_ObjectHideFlags: 0
  m_BuildSettings:
    serializedVersion: 2
    agentTypeID: 0
    agentRadius: 0.5
    agentHeight: 2
    agentSlope: 45
    agentClimb: 0.4
    ledgeDropHeight: 0
    maxJumpAcrossDistance: 0
    minRegionArea: 2
    manualCellSize: 0
    cellSize: 0.16666667
    manualTileSize: 0
    tileSize: 256
    accuratePlacement: 0
    maxJobWorkers: 0
    preserveTilesOutsideBounds: 0
    debug:
      m_Flags: 0
  m_NavMeshData: {fileID: 0}
--- !u!1001 &1310481195
PrefabInstance:
  m_ObjectHideFlags: 0
  serializedVersion: 2
  m_Modification:
    m_TransformParent: {fileID: 0}
    m_Modifications:
    - target: {fileID: 2425153221729923969, guid: 1ffe4e4f0b4ad734bb1fe84c2cf22053, type: 3}
      propertyPath: m_RootOrder
      value: 4
      objectReference: {fileID: 0}
    - target: {fileID: 2425153221729923969, guid: 1ffe4e4f0b4ad734bb1fe84c2cf22053, type: 3}
      propertyPath: m_LocalPosition.x
      value: 0
      objectReference: {fileID: 0}
    - target: {fileID: 2425153221729923969, guid: 1ffe4e4f0b4ad734bb1fe84c2cf22053, type: 3}
      propertyPath: m_LocalPosition.y
      value: 0
      objectReference: {fileID: 0}
    - target: {fileID: 2425153221729923969, guid: 1ffe4e4f0b4ad734bb1fe84c2cf22053, type: 3}
      propertyPath: m_LocalPosition.z
      value: 0
      objectReference: {fileID: 0}
    - target: {fileID: 2425153221729923969, guid: 1ffe4e4f0b4ad734bb1fe84c2cf22053, type: 3}
      propertyPath: m_LocalRotation.w
      value: 1
      objectReference: {fileID: 0}
    - target: {fileID: 2425153221729923969, guid: 1ffe4e4f0b4ad734bb1fe84c2cf22053, type: 3}
      propertyPath: m_LocalRotation.x
      value: 0
      objectReference: {fileID: 0}
    - target: {fileID: 2425153221729923969, guid: 1ffe4e4f0b4ad734bb1fe84c2cf22053, type: 3}
      propertyPath: m_LocalRotation.y
      value: 0
      objectReference: {fileID: 0}
    - target: {fileID: 2425153221729923969, guid: 1ffe4e4f0b4ad734bb1fe84c2cf22053, type: 3}
      propertyPath: m_LocalRotation.z
      value: 0
      objectReference: {fileID: 0}
    - target: {fileID: 2425153221729923969, guid: 1ffe4e4f0b4ad734bb1fe84c2cf22053, type: 3}
      propertyPath: m_LocalEulerAnglesHint.x
      value: 0
      objectReference: {fileID: 0}
    - target: {fileID: 2425153221729923969, guid: 1ffe4e4f0b4ad734bb1fe84c2cf22053, type: 3}
      propertyPath: m_LocalEulerAnglesHint.y
      value: 0
      objectReference: {fileID: 0}
    - target: {fileID: 2425153221729923969, guid: 1ffe4e4f0b4ad734bb1fe84c2cf22053, type: 3}
      propertyPath: m_LocalEulerAnglesHint.z
      value: 0
      objectReference: {fileID: 0}
    - target: {fileID: 2425153221729923983, guid: 1ffe4e4f0b4ad734bb1fe84c2cf22053, type: 3}
      propertyPath: m_Name
      value: GameManager
      objectReference: {fileID: 0}
    m_RemovedComponents: []
  m_SourcePrefab: {fileID: 100100000, guid: 1ffe4e4f0b4ad734bb1fe84c2cf22053, type: 3}
--- !u!1001 &1310631451025622778
PrefabInstance:
  m_ObjectHideFlags: 0
  serializedVersion: 2
  m_Modification:
    m_TransformParent: {fileID: 0}
    m_Modifications:
    - target: {fileID: 1310631451067485216, guid: 4c79e3e58d576dd4c9ea7dbcb64cafc2, type: 3}
      propertyPath: m_Name
      value: Spawner
      objectReference: {fileID: 0}
    - target: {fileID: 1310631451067485217, guid: 4c79e3e58d576dd4c9ea7dbcb64cafc2, type: 3}
      propertyPath: m_RootOrder
      value: 2
      objectReference: {fileID: 0}
    - target: {fileID: 1310631451067485217, guid: 4c79e3e58d576dd4c9ea7dbcb64cafc2, type: 3}
      propertyPath: m_LocalPosition.x
      value: 0
      objectReference: {fileID: 0}
    - target: {fileID: 1310631451067485217, guid: 4c79e3e58d576dd4c9ea7dbcb64cafc2, type: 3}
      propertyPath: m_LocalPosition.y
      value: 0
      objectReference: {fileID: 0}
    - target: {fileID: 1310631451067485217, guid: 4c79e3e58d576dd4c9ea7dbcb64cafc2, type: 3}
      propertyPath: m_LocalPosition.z
      value: 0
      objectReference: {fileID: 0}
    - target: {fileID: 1310631451067485217, guid: 4c79e3e58d576dd4c9ea7dbcb64cafc2, type: 3}
      propertyPath: m_LocalRotation.w
      value: 1
      objectReference: {fileID: 0}
    - target: {fileID: 1310631451067485217, guid: 4c79e3e58d576dd4c9ea7dbcb64cafc2, type: 3}
      propertyPath: m_LocalRotation.x
      value: 0
      objectReference: {fileID: 0}
    - target: {fileID: 1310631451067485217, guid: 4c79e3e58d576dd4c9ea7dbcb64cafc2, type: 3}
      propertyPath: m_LocalRotation.y
      value: 0
      objectReference: {fileID: 0}
    - target: {fileID: 1310631451067485217, guid: 4c79e3e58d576dd4c9ea7dbcb64cafc2, type: 3}
      propertyPath: m_LocalRotation.z
      value: 0
      objectReference: {fileID: 0}
    - target: {fileID: 1310631451067485217, guid: 4c79e3e58d576dd4c9ea7dbcb64cafc2, type: 3}
      propertyPath: m_LocalEulerAnglesHint.x
      value: 0
      objectReference: {fileID: 0}
    - target: {fileID: 1310631451067485217, guid: 4c79e3e58d576dd4c9ea7dbcb64cafc2, type: 3}
      propertyPath: m_LocalEulerAnglesHint.y
      value: 0
      objectReference: {fileID: 0}
    - target: {fileID: 1310631451067485217, guid: 4c79e3e58d576dd4c9ea7dbcb64cafc2, type: 3}
      propertyPath: m_LocalEulerAnglesHint.z
      value: 0
      objectReference: {fileID: 0}
    m_RemovedComponents: []
  m_SourcePrefab: {fileID: 100100000, guid: 4c79e3e58d576dd4c9ea7dbcb64cafc2, type: 3}
--- !u!1001 &1372484096692680354
PrefabInstance:
  m_ObjectHideFlags: 0
  serializedVersion: 2
  m_Modification:
    m_TransformParent: {fileID: 0}
    m_Modifications:
    - target: {fileID: 1372484098175338665, guid: 3bcb2c0e0bafac548a3c4cfb1946c9ab, type: 3}
      propertyPath: m_Name
      value: GameBackground
      objectReference: {fileID: 0}
    - target: {fileID: 1372484098175338670, guid: 3bcb2c0e0bafac548a3c4cfb1946c9ab, type: 3}
      propertyPath: m_RootOrder
      value: 1
      objectReference: {fileID: 0}
    - target: {fileID: 1372484098175338670, guid: 3bcb2c0e0bafac548a3c4cfb1946c9ab, type: 3}
      propertyPath: m_LocalPosition.x
      value: -2.1
      objectReference: {fileID: 0}
    - target: {fileID: 1372484098175338670, guid: 3bcb2c0e0bafac548a3c4cfb1946c9ab, type: 3}
      propertyPath: m_LocalPosition.y
      value: 0.03861311
      objectReference: {fileID: 0}
    - target: {fileID: 1372484098175338670, guid: 3bcb2c0e0bafac548a3c4cfb1946c9ab, type: 3}
      propertyPath: m_LocalPosition.z
      value: -6.0281878
      objectReference: {fileID: 0}
    - target: {fileID: 1372484098175338670, guid: 3bcb2c0e0bafac548a3c4cfb1946c9ab, type: 3}
      propertyPath: m_LocalRotation.w
      value: 1
      objectReference: {fileID: 0}
    - target: {fileID: 1372484098175338670, guid: 3bcb2c0e0bafac548a3c4cfb1946c9ab, type: 3}
      propertyPath: m_LocalRotation.x
      value: 0
      objectReference: {fileID: 0}
    - target: {fileID: 1372484098175338670, guid: 3bcb2c0e0bafac548a3c4cfb1946c9ab, type: 3}
      propertyPath: m_LocalRotation.y
      value: 0
      objectReference: {fileID: 0}
    - target: {fileID: 1372484098175338670, guid: 3bcb2c0e0bafac548a3c4cfb1946c9ab, type: 3}
      propertyPath: m_LocalRotation.z
      value: 0
      objectReference: {fileID: 0}
    - target: {fileID: 1372484098175338670, guid: 3bcb2c0e0bafac548a3c4cfb1946c9ab, type: 3}
      propertyPath: m_LocalEulerAnglesHint.x
      value: 0
      objectReference: {fileID: 0}
    - target: {fileID: 1372484098175338670, guid: 3bcb2c0e0bafac548a3c4cfb1946c9ab, type: 3}
      propertyPath: m_LocalEulerAnglesHint.y
      value: 0
      objectReference: {fileID: 0}
    - target: {fileID: 1372484098175338670, guid: 3bcb2c0e0bafac548a3c4cfb1946c9ab, type: 3}
      propertyPath: m_LocalEulerAnglesHint.z
      value: 0
      objectReference: {fileID: 0}
    m_RemovedComponents: []
  m_SourcePrefab: {fileID: 100100000, guid: 3bcb2c0e0bafac548a3c4cfb1946c9ab, type: 3}
--- !u!1001 &2337601552473009704
PrefabInstance:
  m_ObjectHideFlags: 0
  serializedVersion: 2
  m_Modification:
    m_TransformParent: {fileID: 0}
    m_Modifications:
    - target: {fileID: 2337601553834773066, guid: 08e3d5fcfd60ab14e94c1048ce9a45fe, type: 3}
      propertyPath: m_RootOrder
      value: 6
      objectReference: {fileID: 0}
    - target: {fileID: 2337601553834773066, guid: 08e3d5fcfd60ab14e94c1048ce9a45fe, type: 3}
      propertyPath: m_LocalPosition.x
      value: 0
      objectReference: {fileID: 0}
    - target: {fileID: 2337601553834773066, guid: 08e3d5fcfd60ab14e94c1048ce9a45fe, type: 3}
      propertyPath: m_LocalPosition.y
      value: 0
      objectReference: {fileID: 0}
    - target: {fileID: 2337601553834773066, guid: 08e3d5fcfd60ab14e94c1048ce9a45fe, type: 3}
      propertyPath: m_LocalPosition.z
      value: 0
      objectReference: {fileID: 0}
    - target: {fileID: 2337601553834773066, guid: 08e3d5fcfd60ab14e94c1048ce9a45fe, type: 3}
      propertyPath: m_LocalRotation.w
      value: 1
      objectReference: {fileID: 0}
    - target: {fileID: 2337601553834773066, guid: 08e3d5fcfd60ab14e94c1048ce9a45fe, type: 3}
      propertyPath: m_LocalRotation.x
      value: 0
      objectReference: {fileID: 0}
    - target: {fileID: 2337601553834773066, guid: 08e3d5fcfd60ab14e94c1048ce9a45fe, type: 3}
      propertyPath: m_LocalRotation.y
      value: 0
      objectReference: {fileID: 0}
    - target: {fileID: 2337601553834773066, guid: 08e3d5fcfd60ab14e94c1048ce9a45fe, type: 3}
      propertyPath: m_LocalRotation.z
      value: 0
      objectReference: {fileID: 0}
    - target: {fileID: 2337601553834773066, guid: 08e3d5fcfd60ab14e94c1048ce9a45fe, type: 3}
      propertyPath: m_LocalEulerAnglesHint.x
      value: 0
      objectReference: {fileID: 0}
    - target: {fileID: 2337601553834773066, guid: 08e3d5fcfd60ab14e94c1048ce9a45fe, type: 3}
      propertyPath: m_LocalEulerAnglesHint.y
      value: 0
      objectReference: {fileID: 0}
    - target: {fileID: 2337601553834773066, guid: 08e3d5fcfd60ab14e94c1048ce9a45fe, type: 3}
      propertyPath: m_LocalEulerAnglesHint.z
      value: 0
      objectReference: {fileID: 0}
    - target: {fileID: 2337601553834773111, guid: 08e3d5fcfd60ab14e94c1048ce9a45fe, type: 3}
      propertyPath: m_Name
      value: EventSystem
      objectReference: {fileID: 0}
    m_RemovedComponents: []
  m_SourcePrefab: {fileID: 100100000, guid: 08e3d5fcfd60ab14e94c1048ce9a45fe, type: 3}
--- !u!1001 &2746764893487229486
PrefabInstance:
  m_ObjectHideFlags: 0
  serializedVersion: 2
  m_Modification:
    m_TransformParent: {fileID: 0}
    m_Modifications:
    - target: {fileID: 2746764893039645266, guid: a28ba8b04545bc14fb07919c0e893783, type: 3}
      propertyPath: m_Name
      value: Main Camera
      objectReference: {fileID: 0}
    - target: {fileID: 2746764893039645358, guid: a28ba8b04545bc14fb07919c0e893783, type: 3}
      propertyPath: m_RootOrder
      value: 0
      objectReference: {fileID: 0}
    - target: {fileID: 2746764893039645358, guid: a28ba8b04545bc14fb07919c0e893783, type: 3}
      propertyPath: m_LocalPosition.x
      value: -5
      objectReference: {fileID: 0}
    - target: {fileID: 2746764893039645358, guid: a28ba8b04545bc14fb07919c0e893783, type: 3}
      propertyPath: m_LocalPosition.y
      value: 0
      objectReference: {fileID: 0}
    - target: {fileID: 2746764893039645358, guid: a28ba8b04545bc14fb07919c0e893783, type: 3}
      propertyPath: m_LocalPosition.z
      value: -10
      objectReference: {fileID: 0}
    - target: {fileID: 2746764893039645358, guid: a28ba8b04545bc14fb07919c0e893783, type: 3}
      propertyPath: m_LocalRotation.w
      value: 1
      objectReference: {fileID: 0}
    - target: {fileID: 2746764893039645358, guid: a28ba8b04545bc14fb07919c0e893783, type: 3}
      propertyPath: m_LocalRotation.x
      value: 0
      objectReference: {fileID: 0}
    - target: {fileID: 2746764893039645358, guid: a28ba8b04545bc14fb07919c0e893783, type: 3}
      propertyPath: m_LocalRotation.y
      value: 0
      objectReference: {fileID: 0}
    - target: {fileID: 2746764893039645358, guid: a28ba8b04545bc14fb07919c0e893783, type: 3}
      propertyPath: m_LocalRotation.z
      value: 0
      objectReference: {fileID: 0}
    - target: {fileID: 2746764893039645358, guid: a28ba8b04545bc14fb07919c0e893783, type: 3}
      propertyPath: m_LocalEulerAnglesHint.x
      value: 0
      objectReference: {fileID: 0}
    - target: {fileID: 2746764893039645358, guid: a28ba8b04545bc14fb07919c0e893783, type: 3}
      propertyPath: m_LocalEulerAnglesHint.y
      value: 0
      objectReference: {fileID: 0}
    - target: {fileID: 2746764893039645358, guid: a28ba8b04545bc14fb07919c0e893783, type: 3}
      propertyPath: m_LocalEulerAnglesHint.z
      value: 0
      objectReference: {fileID: 0}
    m_RemovedComponents: []
  m_SourcePrefab: {fileID: 100100000, guid: a28ba8b04545bc14fb07919c0e893783, type: 3}
--- !u!20 &2746764893487229487 stripped
Camera:
  m_CorrespondingSourceObject: {fileID: 2746764893039645265, guid: a28ba8b04545bc14fb07919c0e893783, type: 3}
  m_PrefabInstance: {fileID: 2746764893487229486}
  m_PrefabAsset: {fileID: 0}
--- !u!1001 &8613402903876640331
PrefabInstance:
  m_ObjectHideFlags: 0
  serializedVersion: 2
  m_Modification:
    m_TransformParent: {fileID: 0}
    m_Modifications:
    - target: {fileID: 8613402904835223032, guid: 00f459e325376f743bcbebafecb84998, type: 3}
      propertyPath: m_Name
      value: GamePlayCanvas
      objectReference: {fileID: 0}
    - target: {fileID: 8613402904835223036, guid: 00f459e325376f743bcbebafecb84998, type: 3}
      propertyPath: m_Pivot.x
      value: 0
      objectReference: {fileID: 0}
    - target: {fileID: 8613402904835223036, guid: 00f459e325376f743bcbebafecb84998, type: 3}
      propertyPath: m_Pivot.y
      value: 0
      objectReference: {fileID: 0}
    - target: {fileID: 8613402904835223036, guid: 00f459e325376f743bcbebafecb84998, type: 3}
      propertyPath: m_RootOrder
      value: 5
      objectReference: {fileID: 0}
    - target: {fileID: 8613402904835223036, guid: 00f459e325376f743bcbebafecb84998, type: 3}
      propertyPath: m_AnchorMax.x
      value: 0
      objectReference: {fileID: 0}
    - target: {fileID: 8613402904835223036, guid: 00f459e325376f743bcbebafecb84998, type: 3}
      propertyPath: m_AnchorMax.y
      value: 0
      objectReference: {fileID: 0}
    - target: {fileID: 8613402904835223036, guid: 00f459e325376f743bcbebafecb84998, type: 3}
      propertyPath: m_AnchorMin.x
      value: 0
      objectReference: {fileID: 0}
    - target: {fileID: 8613402904835223036, guid: 00f459e325376f743bcbebafecb84998, type: 3}
      propertyPath: m_AnchorMin.y
      value: 0
      objectReference: {fileID: 0}
    - target: {fileID: 8613402904835223036, guid: 00f459e325376f743bcbebafecb84998, type: 3}
      propertyPath: m_SizeDelta.x
      value: 0
      objectReference: {fileID: 0}
    - target: {fileID: 8613402904835223036, guid: 00f459e325376f743bcbebafecb84998, type: 3}
      propertyPath: m_SizeDelta.y
      value: 0
      objectReference: {fileID: 0}
    - target: {fileID: 8613402904835223036, guid: 00f459e325376f743bcbebafecb84998, type: 3}
      propertyPath: m_LocalPosition.x
      value: 0
      objectReference: {fileID: 0}
    - target: {fileID: 8613402904835223036, guid: 00f459e325376f743bcbebafecb84998, type: 3}
      propertyPath: m_LocalPosition.y
      value: 0
      objectReference: {fileID: 0}
    - target: {fileID: 8613402904835223036, guid: 00f459e325376f743bcbebafecb84998, type: 3}
      propertyPath: m_LocalPosition.z
      value: 0
      objectReference: {fileID: 0}
    - target: {fileID: 8613402904835223036, guid: 00f459e325376f743bcbebafecb84998, type: 3}
      propertyPath: m_LocalRotation.w
      value: 1
      objectReference: {fileID: 0}
    - target: {fileID: 8613402904835223036, guid: 00f459e325376f743bcbebafecb84998, type: 3}
      propertyPath: m_LocalRotation.x
      value: 0
      objectReference: {fileID: 0}
    - target: {fileID: 8613402904835223036, guid: 00f459e325376f743bcbebafecb84998, type: 3}
      propertyPath: m_LocalRotation.y
      value: 0
      objectReference: {fileID: 0}
    - target: {fileID: 8613402904835223036, guid: 00f459e325376f743bcbebafecb84998, type: 3}
      propertyPath: m_LocalRotation.z
      value: 0
      objectReference: {fileID: 0}
    - target: {fileID: 8613402904835223036, guid: 00f459e325376f743bcbebafecb84998, type: 3}
      propertyPath: m_AnchoredPosition.x
      value: 0
      objectReference: {fileID: 0}
    - target: {fileID: 8613402904835223036, guid: 00f459e325376f743bcbebafecb84998, type: 3}
      propertyPath: m_AnchoredPosition.y
      value: 0
      objectReference: {fileID: 0}
    - target: {fileID: 8613402904835223036, guid: 00f459e325376f743bcbebafecb84998, type: 3}
      propertyPath: m_LocalEulerAnglesHint.x
      value: 0
      objectReference: {fileID: 0}
    - target: {fileID: 8613402904835223036, guid: 00f459e325376f743bcbebafecb84998, type: 3}
      propertyPath: m_LocalEulerAnglesHint.y
      value: 0
      objectReference: {fileID: 0}
    - target: {fileID: 8613402904835223036, guid: 00f459e325376f743bcbebafecb84998, type: 3}
      propertyPath: m_LocalEulerAnglesHint.z
      value: 0
      objectReference: {fileID: 0}
    - target: {fileID: 8613402904835223037, guid: 00f459e325376f743bcbebafecb84998, type: 3}
      propertyPath: m_Camera
      value: 
      objectReference: {fileID: 2746764893487229487}
    m_RemovedComponents: []
  m_SourcePrefab: {fileID: 100100000, guid: 00f459e325376f743bcbebafecb84998, type: 3}
--- !u!1001 &9095018498789288572
PrefabInstance:
  m_ObjectHideFlags: 0
  serializedVersion: 2
  m_Modification:
    m_TransformParent: {fileID: 0}
    m_Modifications:
    - target: {fileID: 9095018500401919674, guid: 779f59ea51485d04e921405556d0427b, type: 3}
      propertyPath: m_Name
      value: Collector
      objectReference: {fileID: 0}
    - target: {fileID: 9095018500401919675, guid: 779f59ea51485d04e921405556d0427b, type: 3}
      propertyPath: m_RootOrder
      value: 3
      objectReference: {fileID: 0}
    - target: {fileID: 9095018500401919675, guid: 779f59ea51485d04e921405556d0427b, type: 3}
      propertyPath: m_LocalPosition.x
      value: 0
      objectReference: {fileID: 0}
    - target: {fileID: 9095018500401919675, guid: 779f59ea51485d04e921405556d0427b, type: 3}
      propertyPath: m_LocalPosition.y
      value: 0
      objectReference: {fileID: 0}
    - target: {fileID: 9095018500401919675, guid: 779f59ea51485d04e921405556d0427b, type: 3}
      propertyPath: m_LocalPosition.z
      value: 0
      objectReference: {fileID: 0}
    - target: {fileID: 9095018500401919675, guid: 779f59ea51485d04e921405556d0427b, type: 3}
      propertyPath: m_LocalRotation.w
      value: 1
      objectReference: {fileID: 0}
    - target: {fileID: 9095018500401919675, guid: 779f59ea51485d04e921405556d0427b, type: 3}
      propertyPath: m_LocalRotation.x
      value: 0
      objectReference: {fileID: 0}
    - target: {fileID: 9095018500401919675, guid: 779f59ea51485d04e921405556d0427b, type: 3}
      propertyPath: m_LocalRotation.y
      value: 0
      objectReference: {fileID: 0}
    - target: {fileID: 9095018500401919675, guid: 779f59ea51485d04e921405556d0427b, type: 3}
      propertyPath: m_LocalRotation.z
      value: 0
      objectReference: {fileID: 0}
    - target: {fileID: 9095018500401919675, guid: 779f59ea51485d04e921405556d0427b, type: 3}
      propertyPath: m_LocalEulerAnglesHint.x
      value: 0
      objectReference: {fileID: 0}
    - target: {fileID: 9095018500401919675, guid: 779f59ea51485d04e921405556d0427b, type: 3}
      propertyPath: m_LocalEulerAnglesHint.y
      value: 0
      objectReference: {fileID: 0}
    - target: {fileID: 9095018500401919675, guid: 779f59ea51485d04e921405556d0427b, type: 3}
      propertyPath: m_LocalEulerAnglesHint.z
      value: 0
      objectReference: {fileID: 0}
    m_RemovedComponents: []
  m_SourcePrefab: {fileID: 100100000, guid: 779f59ea51485d04e921405556d0427b, type: 3}
